{
  "type": "service_account",
  "project_id": "titip-belanja",
  "private_key_id": "7457ef24c1cf096b535c6a8a8f1267b7808a58a0",
  "private_key": "-----BEGIN PRIVATE KEY-----\nMIIEvQIBADANBgkqhkiG9w0BAQEFAASCBKcwggSjAgEAAoIBAQC+cjYh3cZTeiNg\nkf5CLDAr6INbtxDctR2QuWJaU5aeaSVW4n4JqNV76zLolFGCG7qbva1SVKs1jDli\nuQdOF4ADDPHNY/7kgdyy7EQCOh8PCTxfQhjUuz1Sw/HVXNNuSii0fW8alCJKNywf\nS8UQjqWA4s9X1Uooc4HFxmO5HCmKZp7s+EZ99SbQTQBHa4rnjqExZwNQmBOIk3Wv\neGEcReUz1iSFpuc4mYk1z7dEgWbSPdqoPinm21/RcaimWXwuTntS4F64pqA+JveC\nlrx+7127bO/BkTwelr827oqu9OqLlW4uYOo3FK+Slgio4Bg9M8IKJuBLXhXHhQn2\nvZi3enz/AgMBAAECggEAATFmt80TdzGVO1x+wiLnXJaQ9aj7QlEZZh2j5l6eEciZ\nh2KTP/9sEXk+MwRRf4rj7K3q9n8M4zQW7B4qY1ohZN2uB1r2vlnpHLjIzFZZUpRC\nbcCSrrtPKxtMqY7uvWXWKZdHA4tClZtuHI2XRafuXpjYwmnOEI6IEWjVQ9gF6LbM\nFLjeq/QqSQGK/I+Pr3ippChImJC+SB+ItfolMWIpJKl5WxpZQ9cFDna/CMLRGbcv\n6lKRtESGuTgQ39CDlixNgXtso0DXKgoQelfWz5V6WuL2rygtTWbpigLnOcqxotpz\nlvJ/1PgyGLPnCvSoGYMGGzGyjVvQ6qc0o1v3C0R+fQKBgQDqVyKMVUvJoJmH1Fq+\nJiKKtwNpVDD6G8UVES0XFO8vPPLyXEpbnMXVJb8XrDZBaBBCGcTA6lLj94Sny0YQ\n4c5e/+oLUSyYgNTea9phYKMJINg/Eju3lR4afsXivDBXK7RPTHqqb02JE4y5pYf4\nIik6mX0pqDkZlzpvGWz3ylmmBQKBgQDQDHgkd4/FWa7OxSGsCO09u/9NOmhnbYtt\nQMyMZOHsZJMVJ5vdYQN9sshdT525oMK/zGheI0ADCO4IHtUrb1bEWnhJg7ZQbwNM\nZMw/Ds/Zqa3HQdScyeNGcfwjp8Lc/n0syYYvVN7CFkZhTujimLOFsEI0n3TvPEL/\nOwFopjbiMwKBgQCqsWeX4rV+m33Zw6OJaAu3ENHqUgoO1FV9H/LBIl2LAhFQ2krL\namlr9b+4xZcLk3psO4rmnohcRzoYYueZenExH6XiMnGScB0eGl+KmLKI/qSlZGmd\nMoAn+nm3yy5HAK2pKWMcbFCE7XmO7HUbF/8CETVrN37IFjDZJiMKZxlf5QKBgBbb\nR9e5yvHDiJDu12QvFuFRZhr178JtJoQ6Oj6yVp/B7ObGEzmfDuMgYSLfPFTIdJzd\nuBmfhcjPklcSDBlZgg7QYaax8bWkfJhH+qhy2CLxoUXi1ZjkFTQIEctZAu+EhfwF\np9hLWq24BMNsB+ndHNvzIVLmsdIWrMWdleoJWL5BAoGACVb8NWjhJPHhzbngtjQJ\n1ldQIAutCEs9PS2UoszPy2D2jZ4rNBNz9+raW/dAHBzrOpMoIbo+nzg6sv0WH4l1\nPh3+6aqnpT+YB+DTVhA7EJWN6n4yKIX6EbawchwX37BTtsTKdVJQcbPrtHQVTA+3\nobh4B+iXV9jAIoBkrkgVmF4=\n-----END PRIVATE KEY-----\n",
  "client_email": "firebase-adminsdk-cclp2@titip-belanja.iam.gserviceaccount.com",
  "client_id": "118261048418659812446",
  "auth_uri": "https://accounts.google.com/o/oauth2/auth",
  "token_uri": "https://oauth2.googleapis.com/token",
  "auth_provider_x509_cert_url": "https://www.googleapis.com/oauth2/v1/certs",
  "client_x509_cert_url": "https://www.googleapis.com/robot/v1/metadata/x509/firebase-adminsdk-cclp2%40titip-belanja.iam.gserviceaccount.com"
}
